[
  {
    "title": "First Message(edited)",
    "newsText": "asdasdasda",
    "id": "5RBhrC3rdEr7F2TSHN9Dx",
    "datetime": "2021-03-27T12:01:28.066Z"
  },
  {
    "title": "Another Test Message",
    "newsText": "asdasd",
    "id": "XA-tLwD9GqNFuNREesqgC",
    "datetime": "2021-03-27T12:02:59.831Z"
  },
  {
    "title": "Another Test Message",
    "newsText": "asdasdcasdcasd",
    "id": "jYzwHCzYhRuplkmftUjBn",
    "datetime": "2021-03-27T12:03:52.925Z"
  },
  {
    "title": "Another Test Message",
    "newsText": "asdasdad",
    "id": "Qnef-6M97SDsXiqobXY-Z",
    "datetime": "2021-03-27T12:08:09.804Z"
  },
  {
    "title": "Another Test Message",
    "newsText": "asdasdasdasd",
    "id": "KCPr8TlbCEfRubUAp5kgi",
    "datetime": "2021-03-27T12:08:47.252Z"
  }
]